{
	"info": {
		"_postman_id": "d1b0daad-4f11-4d1e-b2de-5e5d1c22267c",
		"name": "Authentication & Authorization with JWT",
		"schema": "https://schema.getpostman.com/json/collection/v2.1.0/collection.json",
		"_exporter_id": "13288034"
	},
	"item": [
		{
			"name": "1.SignNValidate",
			"item": [
				{
					"name": "login",
					"request": {
						"method": "POST",
						"header": [],
						"body": {
							"mode": "raw",
							"raw": "{\r\n    \"Username\": \"Huy đẹp trai\"\r\n}",
							"options": {
								"raw": {
									"language": "json"
								}
							}
						},
						"url": {
							"raw": "http://localhost:5001/users/FakeLoginToGenerateToken",
							"protocol": "http",
							"host": [
								"localhost"
							],
							"port": "5001",
							"path": [
								"users",
								"FakeLoginToGenerateToken"
							]
						}
					},
					"response": []
				},
				{
					"name": "No token is in header",
					"request": {
						"method": "GET",
						"header": [],
						"url": {
							"raw": "http://localhost:5001/users/authenticate",
							"protocol": "http",
							"host": [
								"localhost"
							],
							"port": "5001",
							"path": [
								"users",
								"authenticate"
							]
						}
					},
					"response": []
				},
				{
					"name": "Invalid token",
					"request": {
						"auth": {
							"type": "jwt",
							"jwt": [
								{
									"key": "algorithm",
									"value": "HS256",
									"type": "string"
								},
								{
									"key": "isSecretBase64Encoded",
									"value": false,
									"type": "boolean"
								},
								{
									"key": "payload",
									"value": "{}",
									"type": "string"
								},
								{
									"key": "addTokenTo",
									"value": "header",
									"type": "string"
								},
								{
									"key": "headerPrefix",
									"value": "Bearer",
									"type": "string"
								},
								{
									"key": "queryParamKey",
									"value": "token",
									"type": "string"
								},
								{
									"key": "header",
									"value": "{}",
									"type": "string"
								}
							]
						},
						"method": "GET",
						"header": [
							{
								"key": "Authorization",
								"value": "aaaaaaaa",
								"type": "text"
							}
						],
						"url": {
							"raw": "http://localhost:5001/users/authenticate",
							"protocol": "http",
							"host": [
								"localhost"
							],
							"port": "5001",
							"path": [
								"users",
								"authenticate"
							]
						}
					},
					"response": []
				},
				{
					"name": "Valid jwt token",
					"request": {
						"auth": {
							"type": "jwt",
							"jwt": [
								{
									"key": "algorithm",
									"value": "HS256",
									"type": "string"
								},
								{
									"key": "isSecretBase64Encoded",
									"value": false,
									"type": "boolean"
								},
								{
									"key": "payload",
									"value": "{}",
									"type": "string"
								},
								{
									"key": "addTokenTo",
									"value": "header",
									"type": "string"
								},
								{
									"key": "headerPrefix",
									"value": "Bearer",
									"type": "string"
								},
								{
									"key": "queryParamKey",
									"value": "token",
									"type": "string"
								},
								{
									"key": "header",
									"value": "{}",
									"type": "string"
								}
							]
						},
						"method": "GET",
						"header": [
							{
								"key": "Authorization",
								"value": "eyJhbGciOiJIUzI1NiIsInR5cCI6IkpXVCJ9.eyJodHRwOi8vc2NoZW1hcy54bWxzb2FwLm9yZy93cy8yMDA1LzA1L2lkZW50aXR5L2NsYWltcy9uYW1laWRlbnRpZmllciI6InRlc3QiLCJodHRwOi8vc2NoZW1hcy5taWNyb3NvZnQuY29tL3dzLzIwMDgvMDYvaWRlbnRpdHkvY2xhaW1zL3JvbGUiOiJndWVzdCJ9.Fg7xneziafuVPBao3qRAAOfWXAmhcln15WRS-yYeHS8",
								"type": "text"
							}
						],
						"url": {
							"raw": "http://localhost:5001/users/authenticate",
							"protocol": "http",
							"host": [
								"localhost"
							],
							"port": "5001",
							"path": [
								"users",
								"authenticate"
							]
						}
					},
					"response": []
				}
			]
		},
		{
			"name": "2.authorization",
			"item": [
				{
					"name": "login with role guest",
					"request": {
						"method": "POST",
						"header": [],
						"body": {
							"mode": "raw",
							"raw": "{\r\n    \"Username\": \"test guest\",\r\n    \"Role\": \"guest\"\r\n}",
							"options": {
								"raw": {
									"language": "json"
								}
							}
						},
						"url": {
							"raw": "http://localhost:5001/users/FakeLoginToGenerateToken",
							"protocol": "http",
							"host": [
								"localhost"
							],
							"port": "5001",
							"path": [
								"users",
								"FakeLoginToGenerateToken"
							]
						}
					},
					"response": []
				},
				{
					"name": "login with role admin",
					"request": {
						"method": "POST",
						"header": [],
						"body": {
							"mode": "raw",
							"raw": "{\r\n    \"Username\": \"test admin\",\r\n    \"Role\": \"admin\"\r\n}",
							"options": {
								"raw": {
									"language": "json"
								}
							}
						},
						"url": {
							"raw": "http://localhost:5001/users/FakeLoginToGenerateToken",
							"protocol": "http",
							"host": [
								"localhost"
							],
							"port": "5001",
							"path": [
								"users",
								"FakeLoginToGenerateToken"
							]
						}
					},
					"response": []
				},
				{
					"name": "truy cập HelloAdmin mà thiếu JWT",
					"request": {
						"method": "GET",
						"header": [],
						"url": {
							"raw": "http://localhost:5001/users/HelloAdmin",
							"protocol": "http",
							"host": [
								"localhost"
							],
							"port": "5001",
							"path": [
								"users",
								"HelloAdmin"
							]
						}
					},
					"response": []
				},
				{
					"name": "truy cập HelloAdmin mà thiếu HelloGuest JWT",
					"request": {
						"method": "GET",
						"header": [],
						"url": {
							"raw": "http://localhost:5001/users/HelloGuest",
							"protocol": "http",
							"host": [
								"localhost"
							],
							"port": "5001",
							"path": [
								"users",
								"HelloGuest"
							]
						}
					},
					"response": []
				},
				{
					"name": "Vào với vai trò là guest",
					"request": {
						"auth": {
							"type": "jwt",
							"jwt": [
								{
									"key": "algorithm",
									"value": "HS256",
									"type": "string"
								},
								{
									"key": "isSecretBase64Encoded",
									"value": false,
									"type": "boolean"
								},
								{
									"key": "payload",
									"value": "{}",
									"type": "string"
								},
								{
									"key": "addTokenTo",
									"value": "header",
									"type": "string"
								},
								{
									"key": "headerPrefix",
									"value": "Bearer",
									"type": "string"
								},
								{
									"key": "queryParamKey",
									"value": "token",
									"type": "string"
								},
								{
									"key": "header",
									"value": "{}",
									"type": "string"
								}
							]
						},
						"method": "GET",
						"header": [
							{
								"key": "Authorization",
								"value": "eyJhbGciOiJIUzI1NiIsInR5cCI6IkpXVCJ9.eyJodHRwOi8vc2NoZW1hcy54bWxzb2FwLm9yZy93cy8yMDA1LzA1L2lkZW50aXR5L2NsYWltcy9uYW1laWRlbnRpZmllciI6InRlc3QgZ3Vlc3QiLCJodHRwOi8vc2NoZW1hcy5taWNyb3NvZnQuY29tL3dzLzIwMDgvMDYvaWRlbnRpdHkvY2xhaW1zL3JvbGUiOiJndWVzdCJ9.A8uruHslm0TwhcfLNHlITF2yXu0ZL9pM9XRtydWUjtI",
								"type": "text"
							}
						],
						"url": {
							"raw": "http://localhost:5001/users/HelloGuest",
							"protocol": "http",
							"host": [
								"localhost"
							],
							"port": "5001",
							"path": [
								"users",
								"HelloGuest"
							]
						}
					},
					"response": []
				},
				{
					"name": "Vào với vai trò là admin",
					"request": {
						"auth": {
							"type": "jwt",
							"jwt": [
								{
									"key": "algorithm",
									"value": "HS256",
									"type": "string"
								},
								{
									"key": "isSecretBase64Encoded",
									"value": false,
									"type": "boolean"
								},
								{
									"key": "payload",
									"value": "{}",
									"type": "string"
								},
								{
									"key": "addTokenTo",
									"value": "header",
									"type": "string"
								},
								{
									"key": "headerPrefix",
									"value": "Bearer",
									"type": "string"
								},
								{
									"key": "queryParamKey",
									"value": "token",
									"type": "string"
								},
								{
									"key": "header",
									"value": "{}",
									"type": "string"
								}
							]
						},
						"method": "GET",
						"header": [
							{
								"key": "Authorization",
								"value": "eyJhbGciOiJIUzI1NiIsInR5cCI6IkpXVCJ9.eyJodHRwOi8vc2NoZW1hcy54bWxzb2FwLm9yZy93cy8yMDA1LzA1L2lkZW50aXR5L2NsYWltcy9uYW1laWRlbnRpZmllciI6InRlc3QgYWRtaW4iLCJodHRwOi8vc2NoZW1hcy5taWNyb3NvZnQuY29tL3dzLzIwMDgvMDYvaWRlbnRpdHkvY2xhaW1zL3JvbGUiOiJhZG1pbiJ9.oJjJ3xjXT2VOrWIKOpDMdSO0DfOFW3UAe9qfUqJbJ1w",
								"type": "text"
							}
						],
						"url": {
							"raw": "http://localhost:5001/users/HelloAdmin",
							"protocol": "http",
							"host": [
								"localhost"
							],
							"port": "5001",
							"path": [
								"users",
								"HelloAdmin"
							]
						}
					},
					"response": []
				}
			]
		},
		{
			"name": "3. best practice",
			"item": [
				{
					"name": "login",
					"request": {
						"method": "POST",
						"header": [],
						"body": {
							"mode": "raw",
							"raw": "{\r\n    \"Username\": \"test guest\",\r\n    \"Role\": \"admin\"\r\n}",
							"options": {
								"raw": {
									"language": "json"
								}
							}
						},
						"url": {
							"raw": "http://localhost:5001/users/FakeLoginToGenerateToken",
							"protocol": "http",
							"host": [
								"localhost"
							],
							"port": "5001",
							"path": [
								"users",
								"FakeLoginToGenerateToken"
							]
						}
					},
					"response": []
				},
				{
					"name": "failed with expiered token",
					"request": {
						"auth": {
							"type": "bearer",
							"bearer": [
								{
									"key": "token",
									"value": "eyJhbGciOiJIUzI1NiIsInR5cCI6IkpXVCJ9.eyJodHRwOi8vc2NoZW1hcy54bWxzb2FwLm9yZy93cy8yMDA1LzA1L2lkZW50aXR5L2NsYWltcy9uYW1laWRlbnRpZmllciI6InRlc3QgZ3Vlc3QiLCJodHRwOi8vc2NoZW1hcy5taWNyb3NvZnQuY29tL3dzLzIwMDgvMDYvaWRlbnRpdHkvY2xhaW1zL3JvbGUiOiJhZG1pbiIsImV4cCI6MTcxMzYyMTgxNSwiaXNzIjoiaHR0cDovL2xvY2FsaG9zdDo1MDAxIiwiYXVkIjoibG9jYWxob3N0OjUwMDEifQ.AQMm5ETHK213P0t27bBlyw91n8uj-m6CpgYRPiyT32g",
									"type": "string"
								}
							]
						},
						"method": "GET",
						"header": [],
						"url": {
							"raw": "http://localhost:5001/users/HelloGuest",
							"protocol": "http",
							"host": [
								"localhost"
							],
							"port": "5001",
							"path": [
								"users",
								"HelloGuest"
							]
						}
					},
					"response": []
				},
				{
					"name": "API của guest",
					"request": {
						"auth": {
							"type": "bearer",
							"bearer": [
								{
									"key": "token",
									"value": "eyJhbGciOiJIUzI1NiIsInR5cCI6IkpXVCJ9.eyJodHRwOi8vc2NoZW1hcy54bWxzb2FwLm9yZy93cy8yMDA1LzA1L2lkZW50aXR5L2NsYWltcy9uYW1laWRlbnRpZmllciI6InRlc3QgZ3Vlc3QiLCJodHRwOi8vc2NoZW1hcy5taWNyb3NvZnQuY29tL3dzLzIwMDgvMDYvaWRlbnRpdHkvY2xhaW1zL3JvbGUiOiJndWVzdCIsImV4cCI6MTcxMzYyMTg1NSwiaXNzIjoiaHR0cDovL2xvY2FsaG9zdDo1MDAxIiwiYXVkIjoibG9jYWxob3N0OjUwMDEifQ.jSCgEgdbltHgZPd9vcmm-veA8GBBO3RXjUlBX16ewcw",
									"type": "string"
								}
							]
						},
						"method": "GET",
						"header": [],
						"url": {
							"raw": "http://localhost:5001/users/HelloGuest",
							"protocol": "http",
							"host": [
								"localhost"
							],
							"port": "5001",
							"path": [
								"users",
								"HelloGuest"
							]
						}
					},
					"response": []
				},
				{
					"name": "API cho admin",
					"request": {
						"auth": {
							"type": "bearer",
							"bearer": [
								{
									"key": "token",
									"value": "eyJhbGciOiJIUzI1NiIsInR5cCI6IkpXVCJ9.eyJodHRwOi8vc2NoZW1hcy54bWxzb2FwLm9yZy93cy8yMDA1LzA1L2lkZW50aXR5L2NsYWltcy9uYW1laWRlbnRpZmllciI6InRlc3QgZ3Vlc3QiLCJodHRwOi8vc2NoZW1hcy5taWNyb3NvZnQuY29tL3dzLzIwMDgvMDYvaWRlbnRpdHkvY2xhaW1zL3JvbGUiOiJhZG1pbiIsImV4cCI6MTcxMzYyMTgxNSwiaXNzIjoiaHR0cDovL2xvY2FsaG9zdDo1MDAxIiwiYXVkIjoibG9jYWxob3N0OjUwMDEifQ.AQMm5ETHK213P0t27bBlyw91n8uj-m6CpgYRPiyT32g",
									"type": "string"
								}
							]
						},
						"method": "GET",
						"header": [],
						"url": {
							"raw": "http://localhost:5001/users/HelloAdmin",
							"protocol": "http",
							"host": [
								"localhost"
							],
							"port": "5001",
							"path": [
								"users",
								"HelloAdmin"
							]
						}
					},
					"response": []
				},
				{
					"name": "API cho guest hoặc admin",
					"request": {
						"auth": {
							"type": "noauth"
						},
						"method": "GET",
						"header": [
							{
								"key": "Authorization",
								"value": "Bearer eyJhbGciOiJIUzI1NiIsInR5cCI6IkpXVCJ9.eyJodHRwOi8vc2NoZW1hcy54bWxzb2FwLm9yZy93cy8yMDA1LzA1L2lkZW50aXR5L2NsYWltcy9uYW1laWRlbnRpZmllciI6InRlc3QgZ3Vlc3QiLCJodHRwOi8vc2NoZW1hcy5taWNyb3NvZnQuY29tL3dzLzIwMDgvMDYvaWRlbnRpdHkvY2xhaW1zL3JvbGUiOiJhZG1pbiIsImV4cCI6MTcxMzYyMTgxNSwiaXNzIjoiaHR0cDovL2xvY2FsaG9zdDo1MDAxIiwiYXVkIjoibG9jYWxob3N0OjUwMDEifQ.AQMm5ETHK213P0t27bBlyw91n8uj-m6CpgYRPiyT32g",
								"type": "text"
							}
						],
						"url": {
							"raw": "http://localhost:5001/users/HelloGuestOrAdmin",
							"protocol": "http",
							"host": [
								"localhost"
							],
							"port": "5001",
							"path": [
								"users",
								"HelloGuestOrAdmin"
							]
						}
					},
					"response": []
				},
				{
					"name": "CurrentUser",
					"request": {
						"auth": {
							"type": "noauth"
						},
						"method": "GET",
						"header": [
							{
								"key": "Authorization",
								"value": "Bearer eyJhbGciOiJIUzI1NiIsInR5cCI6IkpXVCJ9.eyJodHRwOi8vc2NoZW1hcy54bWxzb2FwLm9yZy93cy8yMDA1LzA1L2lkZW50aXR5L2NsYWltcy9uYW1laWRlbnRpZmllciI6InRlc3QgZ3Vlc3QiLCJodHRwOi8vc2NoZW1hcy5taWNyb3NvZnQuY29tL3dzLzIwMDgvMDYvaWRlbnRpdHkvY2xhaW1zL3JvbGUiOiJhZG1pbiIsImV4cCI6MTcxMzYyMzQ5MSwiaXNzIjoiaHR0cDovL2xvY2FsaG9zdDo1MDAxIiwiYXVkIjoibG9jYWxob3N0OjUwMDEifQ.mWMxTrJRBhSC1Zv-tfvVSlywb3PNd_Onri5Uue4goRE",
								"type": "text"
							}
						],
						"url": {
							"raw": "http://localhost:5001/Custom",
							"protocol": "http",
							"host": [
								"localhost"
							],
							"port": "5001",
							"path": [
								"Custom"
							]
						}
					},
					"response": []
				}
			]
		}
	]
}